casedata: 组织管理 添加组织 正向用例 高 post http://120.46.172.186:8080/api/org/v1/org/addOrg application/json {'code': 'python_org', 'demId': '不知道', 'exceedLimitNum': 0, 'grade': '', 'limitNum': 0, 'name': '测试的组织', 'nowNum': 0, 'orderNo': 0, 'parentId': '0'} {'state': True, 'message': '添加组织成功！'} delete|select {'select': 'SELECT ID_ FROM uc_demension WHERE `CODE_`="python_dem";', 'delete': 'DELETE FROM uc_org WHERE `CODE_`="python_org";'} demId
application/json {'code': 'python_org', 'demId': '1688581356897976320', 'exceedLimitNum': 0, 'grade': '', 'limitNum': 0, 'name': '测试的组织', 'nowNum': 0, 'orderNo': 0, 'parentId': '0'}
断言成功
