{
  "uid" : "4b4757e66a1912dae1a509f688f20b0f",
  "name" : "categories",
  "children" : [ {
    "name" : "Product defects",
    "children" : [ {
      "name" : "AssertionError: 断言失败",
      "children" : [ {
        "name" : "正向用例",
        "uid" : "3480b937ad98cf99",
        "parentUid" : "19135fd4a1c65086de1dc2a02ed9d4e0",
        "status" : "failed",
        "time" : {
          "start" : 1691424142251,
          "stop" : 1691424142314,
          "duration" : 63
        },
        "flaky" : false,
        "newFailed" : false,
        "parameters" : [ "None", "{'message': '刷新token成功'}", "'刷新token'", "'中'", "None", "'认证接口'", "'get'", "'http://120.46.172.186:8080/refresh'", "None", "None", "'正向用例'", "None" ]
      } ],
      "uid" : "19135fd4a1c65086de1dc2a02ed9d4e0"
    } ],
    "uid" : "8fb3a91ba5aaf9de24cc8a92edc82b5d"
  } ]
}