[35mDEBUG[0m--2023-08-08 00:02:16--Resetting dropped connection: 120.46.172.186
[35mDEBUG[0m--2023-08-08 00:02:16--http://120.46.172.186:8080 "GET /refresh HTTP/1.1" 200 None
[1m[31mERROR[0m--2023-08-08 00:02:16--模块名称:认证接口,接口名称:刷新token，用例标题:正向用例，用例等级:中,请求方法：get,请求路径：http://120.46.172.186:8080/refresh，媒体类型：None，用例数据：None，期望结果：{'message': '刷新token成功'}
[35mDEBUG[0m--2023-08-08 00:02:17--http://120.46.172.186:8080 "GET /refresh HTTP/1.1" 200 None
[1m[31mERROR[0m--2023-08-08 00:02:17--模块名称:认证接口,接口名称:刷新token，用例标题:正向用例，用例等级:中,请求方法：get,请求路径：http://120.46.172.186:8080/refresh，媒体类型：None，用例数据：None，期望结果：{'message': '刷新token成功'}